@startuml

Title Class Diagram

class AnalogSensor{
    - pin
    + setup()
    + read (samples = 3 )
}
class AnalogEnabledSensor{
    + setup()
    + read(samples = 1)
}

class PolledButton{
    - pin
    - mode
    - inverted
    + isPresed()
}

class AISettings <<spiffs>> {
    + filename
    + bool ota
    + sleepTieNanos
    + read()
    + write()
}

class Enabler{
    - pin
    - wakeupTimeMilis = 0
    - wakedownTimeMilis = 0
    - inversed = false
    + setup()
    + enable()
    + disable()
}

class Led {
    - pin
    - activeHigh
    - update(status)
}

class Pusher {
    - Servo servo
    + setup()
    + push()
}

class Sleep {
    - wakeUpPin
    - level
    + goToSleep()
    + whoAwakeMe()
}

AnalogEnabledSensor *-up- AnalogSensor : sensor >
AnalogEnabledSensor *-up- Enabler : enabler >
Pusher *-up- Enabler : enabler >

@enduml