EESchema Schematic File Version 4
LIBS:espAireAcondicionado-cache
EELAYER 30 0
EELAYER END
$Descr A4 11693 8268
encoding utf-8
Sheet 1 1
Title ""
Date ""
Rev ""
Comp ""
Comment1 ""
Comment2 ""
Comment3 ""
Comment4 ""
$EndDescr
$Comp
L Connector:Conn_01x02_Female J1
U 1 1 5E04AC88
P 8450 5500
F 0 "J1" H 8478 5476 50  0000 L CNN
F 1 "Power" H 8478 5385 50  0000 L CNN
F 2 "Connector_JST:JST_XH_B2B-XH-A_1x02_P2.50mm_Vertical" H 8450 5500 50  0001 C CNN
F 3 "~" H 8450 5500 50  0001 C CNN
	1    8450 5500
	1    0    0    -1  
$EndComp
$Comp
L power:+3.3V #PWR011
U 1 1 5E052ACC
P 7400 5050
F 0 "#PWR011" H 7400 4900 50  0001 C CNN
F 1 "+3.3V" H 7415 5223 50  0000 C CNN
F 2 "" H 7400 5050 50  0001 C CNN
F 3 "" H 7400 5050 50  0001 C CNN
	1    7400 5050
	1    0    0    -1  
$EndComp
$Comp
L power:GND #PWR012
U 1 1 5E053190
P 8150 5800
F 0 "#PWR012" H 8150 5550 50  0001 C CNN
F 1 "GND" H 8155 5627 50  0000 C CNN
F 2 "" H 8150 5800 50  0001 C CNN
F 3 "" H 8150 5800 50  0001 C CNN
	1    8150 5800
	1    0    0    -1  
$EndComp
Wire Wire Line
	8150 5800 8150 5650
Wire Wire Line
	8150 5600 8250 5600
Wire Wire Line
	7400 5050 7400 5350
$Comp
L Connector:Conn_01x03_Male J2
U 1 1 5E055C3D
P 10850 4850
F 0 "J2" H 10822 4782 50  0000 R CNN
F 1 "PRG" H 10822 4873 50  0000 R CNN
F 2 "Connector_PinHeader_2.54mm:PinHeader_1x03_P2.54mm_Vertical" H 10850 4850 50  0001 C CNN
F 3 "~" H 10850 4850 50  0001 C CNN
	1    10850 4850
	-1   0    0    1   
$EndComp
$Comp
L Switch:SW_Push SW2
U 1 1 5E05F36F
P 9650 5150
F 0 "SW2" H 9650 5435 50  0000 C CNN
F 1 "RESET" H 9650 5344 50  0000 C CNN
F 2 "Button_Switch_THT:SW_DIP_SPSTx01_Slide_6.7x4.1mm_W7.62mm_P2.54mm_LowProfile" H 9650 5350 50  0001 C CNN
F 3 "~" H 9650 5350 50  0001 C CNN
	1    9650 5150
	1    0    0    -1  
$EndComp
$Comp
L power:GND #PWR014
U 1 1 5E061D60
P 10650 6100
F 0 "#PWR014" H 10650 5850 50  0001 C CNN
F 1 "GND" H 10655 5927 50  0000 C CNN
F 2 "" H 10650 6100 50  0001 C CNN
F 3 "" H 10650 6100 50  0001 C CNN
	1    10650 6100
	1    0    0    -1  
$EndComp
$Comp
L Switch:SW_Push SW3
U 1 1 5E062A60
P 10200 5900
F 0 "SW3" H 10200 6185 50  0000 C CNN
F 1 "Program" H 10200 6094 50  0000 C CNN
F 2 "Button_Switch_THT:SW_DIP_SPSTx01_Slide_6.7x4.1mm_W7.62mm_P2.54mm_LowProfile" H 10200 6100 50  0001 C CNN
F 3 "~" H 10200 6100 50  0001 C CNN
	1    10200 5900
	1    0    0    -1  
$EndComp
Wire Wire Line
	10650 5900 10400 5900
Wire Wire Line
	9450 5150 9200 5150
Text Label 9250 5150 0    50   ~ 0
Reset
Text Label 9250 5900 0    50   ~ 0
GPIO0
Text Label 10500 4750 0    50   ~ 0
tx
Text Label 10500 4850 0    50   ~ 0
rx
Wire Notes Line
	9100 4400 9100 6350
Wire Notes Line
	9100 6350 11100 6350
Wire Notes Line
	11100 6350 11100 4400
Wire Notes Line
	11100 4400 9100 4400
Text Notes 9100 4350 0    50   ~ 0
Programación
$Comp
L Device:R R2
U 1 1 5E0C96CC
P 9900 3300
F 0 "R2" H 9970 3346 50  0000 L CNN
F 1 "10k" H 9970 3255 50  0000 L CNN
F 2 "Resistor_SMD:R_1206_3216Metric" V 9830 3300 50  0001 C CNN
F 3 "~" H 9900 3300 50  0001 C CNN
	1    9900 3300
	1    0    0    -1  
$EndComp
$Comp
L power:GND #PWR010
U 1 1 5E0CB776
P 9900 3700
F 0 "#PWR010" H 9900 3450 50  0001 C CNN
F 1 "GND" H 9905 3527 50  0000 C CNN
F 2 "" H 9900 3700 50  0001 C CNN
F 3 "" H 9900 3700 50  0001 C CNN
	1    9900 3700
	1    0    0    -1  
$EndComp
Wire Wire Line
	9900 2950 9900 3050
Wire Wire Line
	9900 2650 9900 2600
Wire Wire Line
	9250 2600 9900 2600
Wire Wire Line
	9900 3050 9250 3050
Text Label 9300 2600 0    50   ~ 0
ls_feed
Text Label 9300 3050 0    50   ~ 0
ls_data
Wire Notes Line
	9100 4100 11100 4100
Wire Notes Line
	11100 4100 11100 2300
Wire Notes Line
	11100 2300 9100 2300
Wire Notes Line
	9100 2300 9100 4100
Text Notes 9100 2250 0    50   ~ 0
Sensor de luz
$Comp
L Connector:Conn_01x03_Male J3
U 1 1 5E0DD9D0
P 10650 900
F 0 "J3" H 10622 832 50  0000 R CNN
F 1 "ServoConn" H 10622 923 50  0000 R CNN
F 2 "Connector_PinHeader_2.54mm:PinHeader_1x03_P2.54mm_Vertical" H 10650 900 50  0001 C CNN
F 3 "~" H 10650 900 50  0001 C CNN
	1    10650 900 
	-1   0    0    1   
$EndComp
$Comp
L power:GND #PWR015
U 1 1 5E0E097F
P 10250 1750
F 0 "#PWR015" H 10250 1500 50  0001 C CNN
F 1 "GND" H 10255 1577 50  0000 C CNN
F 2 "" H 10250 1750 50  0001 C CNN
F 3 "" H 10250 1750 50  0001 C CNN
	1    10250 1750
	1    0    0    -1  
$EndComp
Wire Notes Line
	11100 2000 11100 650 
Wire Notes Line
	11100 650  9150 650 
Wire Notes Line
	9150 2000 11100 2000
Text Notes 9150 600  0    50   ~ 0
Servo Connector
$Comp
L Sensor_Optical:A9013 ls_r1
U 1 1 5E03D9E6
P 9900 2800
F 0 "ls_r1" H 9970 2846 50  0000 L CNN
F 1 "A9013" H 9970 2755 50  0001 L CNN
F 2 "Connector_PinHeader_2.54mm:PinHeader_1x02_P2.54mm_Vertical" V 10075 2800 50  0001 C CNN
F 3 "http://www.produktinfo.conrad.com/datenblaetter/125000-149999/145475-da-01-en-FOTOWIDERSTAND_A_9060_A_9013.pdf" H 9900 2750 50  0001 C CNN
	1    9900 2800
	1    0    0    -1  
$EndComp
Wire Wire Line
	10450 800  9450 800 
Text Label 9450 800  0    50   ~ 0
servo
Wire Wire Line
	10250 1500 10250 1750
Wire Wire Line
	10450 1000 10250 1000
Wire Wire Line
	10250 1000 10250 1100
$Comp
L Device:R R1
U 1 1 5E284BE6
P 9900 1150
F 0 "R1" V 9693 1150 50  0000 C CNN
F 1 "100" V 9784 1150 50  0000 C CNN
F 2 "Resistor_SMD:R_1206_3216Metric" V 9830 1150 50  0001 C CNN
F 3 "~" H 9900 1150 50  0001 C CNN
	1    9900 1150
	-1   0    0    1   
$EndComp
Wire Wire Line
	9900 1000 9450 1000
Wire Wire Line
	9900 1300 9950 1300
Text Label 9450 1000 0    50   ~ 0
servo_enable
Wire Notes Line
	9150 2000 9150 650 
$Comp
L Transistor_BJT:2N3904 Q1
U 1 1 5E2A8216
P 10150 1300
F 0 "Q1" H 10340 1346 50  0000 L CNN
F 1 "2N4401" H 10340 1255 50  0000 L CNN
F 2 "Package_TO_SOT_THT:TO-92_Inline" H 10350 1225 50  0001 L CIN
F 3 "https://www.fairchildsemi.com/datasheets/2N/2N3904.pdf" H 10150 1300 50  0001 L CNN
	1    10150 1300
	1    0    0    -1  
$EndComp
Wire Notes Line
	9000 6350 7000 6350
Wire Notes Line
	7000 6350 7000 4400
Wire Notes Line
	7000 4400 9000 4400
Wire Notes Line
	9000 4400 9000 6350
Text Notes 7050 4350 0    50   ~ 0
Alimentacion
$Comp
L Device:C c2
U 1 1 5E79193B
P 10400 5550
F 0 "c2" V 10652 5550 50  0000 C CNN
F 1 "0.1uF" V 10561 5550 50  0000 C CNN
F 2 "Capacitor_THT:C_Disc_D3.8mm_W2.6mm_P2.50mm" H 10438 5400 50  0001 C CNN
F 3 "~" H 10400 5550 50  0001 C CNN
	1    10400 5550
	0    -1   -1   0   
$EndComp
$Comp
L Device:R R4
U 1 1 5E792B42
P 9900 4900
F 0 "R4" H 9970 4946 50  0000 L CNN
F 1 "2.2k" H 9970 4855 50  0000 L CNN
F 2 "Resistor_SMD:R_1206_3216Metric" V 9830 4900 50  0001 C CNN
F 3 "~" H 9900 4900 50  0001 C CNN
	1    9900 4900
	1    0    0    -1  
$EndComp
$Comp
L power:+3.3V #PWR08
U 1 1 5E799AED
P 9900 4650
F 0 "#PWR08" H 9900 4500 50  0001 C CNN
F 1 "+3.3V" H 9915 4823 50  0000 C CNN
F 2 "" H 9900 4650 50  0001 C CNN
F 3 "" H 9900 4650 50  0001 C CNN
	1    9900 4650
	1    0    0    -1  
$EndComp
$Comp
L Device:R R5
U 1 1 5E7921B9
P 9900 5400
F 0 "R5" H 9830 5354 50  0000 R CNN
F 1 "1k" H 9830 5445 50  0000 R CNN
F 2 "Resistor_SMD:R_1206_3216Metric" V 9830 5400 50  0001 C CNN
F 3 "~" H 9900 5400 50  0001 C CNN
	1    9900 5400
	-1   0    0    1   
$EndComp
Connection ~ 10650 5900
Wire Wire Line
	10650 4950 10650 5550
Wire Wire Line
	10550 5550 10650 5550
Connection ~ 10650 5550
Wire Wire Line
	10650 5550 10650 5900
Wire Wire Line
	10250 5550 9900 5550
Wire Wire Line
	9900 5250 9900 5150
Wire Wire Line
	9900 4750 9900 4650
Wire Wire Line
	10650 4750 10450 4750
Wire Wire Line
	10650 4850 10450 4850
Wire Wire Line
	9850 5150 9900 5150
Connection ~ 9900 5150
Wire Wire Line
	9900 5150 9900 5050
Wire Wire Line
	10650 5900 10650 6100
Wire Wire Line
	9200 5900 10000 5900
$Comp
L ESPGroover:ESP32-WROVER U1
U 1 1 5E77C8AB
P 3950 3650
F 0 "U1" H 3925 4987 60  0000 C CNN
F 1 "ESP32-WROVER" H 3925 4881 60  0000 C CNN
F 2 "esp32-wrover:ESP32-WROVER" H 4400 3350 60  0001 C CNN
F 3 "" H 4400 3350 60  0001 C CNN
	1    3950 3650
	1    0    0    -1  
$EndComp
$Comp
L power:GND #PWR04
U 1 1 5E7858D0
P 2100 3400
F 0 "#PWR04" H 2100 3150 50  0001 C CNN
F 1 "GND" H 2105 3227 50  0000 C CNN
F 2 "" H 2100 3400 50  0001 C CNN
F 3 "" H 2100 3400 50  0001 C CNN
	1    2100 3400
	1    0    0    -1  
$EndComp
$Comp
L power:+3.3V #PWR02
U 1 1 5E78632A
P 2100 2750
F 0 "#PWR02" H 2100 2600 50  0001 C CNN
F 1 "+3.3V" H 2115 2923 50  0000 C CNN
F 2 "" H 2100 2750 50  0001 C CNN
F 3 "" H 2100 2750 50  0001 C CNN
	1    2100 2750
	1    0    0    -1  
$EndComp
Wire Wire Line
	2100 2750 2500 2750
Wire Wire Line
	2500 2750 2500 3000
Wire Wire Line
	2500 3000 3050 3000
$Comp
L power:GND #PWR03
U 1 1 5E788511
P 5450 2900
F 0 "#PWR03" H 5450 2650 50  0001 C CNN
F 1 "GND" H 5455 2727 50  0000 C CNN
F 2 "" H 5450 2900 50  0001 C CNN
F 3 "" H 5450 2900 50  0001 C CNN
	1    5450 2900
	1    0    0    -1  
$EndComp
$Comp
L power:GND #PWR05
U 1 1 5E78994F
P 2400 4400
F 0 "#PWR05" H 2400 4150 50  0001 C CNN
F 1 "GND" H 2405 4227 50  0000 C CNN
F 2 "" H 2400 4400 50  0001 C CNN
F 3 "" H 2400 4400 50  0001 C CNN
	1    2400 4400
	1    0    0    -1  
$EndComp
Wire Wire Line
	4800 3000 5300 3000
Wire Wire Line
	4800 2900 5300 2900
Wire Wire Line
	5300 2900 5300 3000
Wire Wire Line
	3050 4300 2400 4300
Wire Wire Line
	2400 4300 2400 4400
$Comp
L Device:C C1
U 1 1 5E78CD63
P 2100 3000
F 0 "C1" H 2215 3046 50  0000 L CNN
F 1 "0,1uf" H 2215 2955 50  0000 L CNN
F 2 "Capacitor_THT:C_Disc_D3.8mm_W2.6mm_P2.50mm" H 2138 2850 50  0001 C CNN
F 3 "~" H 2100 3000 50  0001 C CNN
	1    2100 3000
	1    0    0    -1  
$EndComp
Wire Wire Line
	2100 2750 2100 2850
Connection ~ 2100 2750
Wire Wire Line
	2100 3150 2100 3300
Wire Wire Line
	3050 2900 2650 2900
Wire Wire Line
	2650 2900 2650 3300
Wire Wire Line
	2650 3300 2100 3300
Connection ~ 2100 3300
Wire Wire Line
	2100 3300 2100 3400
Wire Wire Line
	4800 3300 5150 3300
Wire Wire Line
	4800 3400 5150 3400
Text Label 5050 3300 0    50   ~ 0
tx
Text Label 5050 3400 0    50   ~ 0
rx
Wire Wire Line
	3050 3100 2750 3100
Text Label 2750 3100 0    50   ~ 0
Reset
$Comp
L Switch:SW_DPST_x2 SW1
U 1 1 5E79F4B0
P 8300 3050
F 0 "SW1" H 8300 3285 50  0000 C CNN
F 1 "OTA SW" H 8300 3194 50  0000 C CNN
F 2 "Connector_PinHeader_2.54mm:PinHeader_1x03_P2.54mm_Vertical" H 8300 3050 50  0001 C CNN
F 3 "~" H 8300 3050 50  0001 C CNN
	1    8300 3050
	1    0    0    -1  
$EndComp
$Comp
L power:GND #PWR06
U 1 1 5E7A0C8E
P 8700 3150
F 0 "#PWR06" H 8700 2900 50  0001 C CNN
F 1 "GND" H 8705 2977 50  0000 C CNN
F 2 "" H 8700 3150 50  0001 C CNN
F 3 "" H 8700 3150 50  0001 C CNN
	1    8700 3150
	1    0    0    -1  
$EndComp
Wire Wire Line
	4800 4400 5250 4400
Wire Wire Line
	8500 3050 8700 3050
Wire Wire Line
	8700 3050 8700 3150
$Comp
L Device:LED D1
U 1 1 5E7D7DE5
P 8000 2600
F 0 "D1" V 8039 2482 50  0000 R CNN
F 1 "OTA_LED" V 7948 2482 50  0000 R CNN
F 2 "LED_THT:LED_D3.0mm" H 8000 2600 50  0001 C CNN
F 3 "~" H 8000 2600 50  0001 C CNN
	1    8000 2600
	-1   0    0    1   
$EndComp
$Comp
L Device:R R3
U 1 1 5E7DA99F
P 8300 2600
F 0 "R3" H 8370 2646 50  0000 L CNN
F 1 "2k" H 8370 2555 50  0000 L CNN
F 2 "Resistor_SMD:R_1206_3216Metric" V 8230 2600 50  0001 C CNN
F 3 "~" H 8300 2600 50  0001 C CNN
	1    8300 2600
	0    -1   -1   0   
$EndComp
$Comp
L power:+6V #PWR013
U 1 1 5E82A686
P 8200 5050
F 0 "#PWR013" H 8200 4900 50  0001 C CNN
F 1 "+6V" H 8215 5223 50  0000 C CNN
F 2 "" H 8200 5050 50  0001 C CNN
F 3 "" H 8200 5050 50  0001 C CNN
	1    8200 5050
	1    0    0    -1  
$EndComp
$Comp
L power:+6V #PWR01
U 1 1 5E840180
P 9550 900
F 0 "#PWR01" H 9550 750 50  0001 C CNN
F 1 "+6V" V 9565 1028 50  0000 L CNN
F 2 "" H 9550 900 50  0001 C CNN
F 3 "" H 9550 900 50  0001 C CNN
	1    9550 900 
	0    -1   -1   0   
$EndComp
Wire Wire Line
	9550 900  10450 900 
Wire Wire Line
	9900 3450 9900 3700
Connection ~ 9900 3050
Wire Wire Line
	9900 3050 9900 3150
Wire Wire Line
	5100 3100 4800 3100
Text Label 4800 3100 0    50   ~ 0
servo
Wire Wire Line
	3050 3800 2750 3800
Text Label 2550 3800 0    50   ~ 0
servo_enable
$Comp
L Switch:SW_Push SW4
U 1 1 5E874A8E
P 8400 3800
F 0 "SW4" H 8400 4085 50  0000 C CNN
F 1 "INT" H 8400 3994 50  0000 C CNN
F 2 "Button_Switch_THT:SW_DIP_SPSTx01_Slide_6.7x4.1mm_W7.62mm_P2.54mm_LowProfile" H 8400 4000 50  0001 C CNN
F 3 "~" H 8400 4000 50  0001 C CNN
	1    8400 3800
	1    0    0    -1  
$EndComp
$Comp
L power:GND #PWR017
U 1 1 5E877065
P 8600 3800
F 0 "#PWR017" H 8600 3550 50  0001 C CNN
F 1 "GND" H 8605 3627 50  0000 C CNN
F 2 "" H 8600 3800 50  0001 C CNN
F 3 "" H 8600 3800 50  0001 C CNN
	1    8600 3800
	1    0    0    -1  
$EndComp
Wire Wire Line
	4800 4500 5300 4500
$Comp
L Regulator_Linear:AP2204RA-5.0 LDD1
U 1 1 5EB742D0
P 7700 5350
F 0 "LDD1" H 7700 5592 50  0000 C CNN
F 1 "HT7333-a" H 7700 5501 50  0000 C CNN
F 2 "Package_TO_SOT_THT:TO-92" H 7700 5575 50  0001 C CNN
F 3 "https://www.diodes.com/assets/Datasheets/AP2204.pdf" H 7700 5350 50  0001 C CNN
	1    7700 5350
	-1   0    0    -1  
$EndComp
Wire Wire Line
	8250 5500 8250 5350
Wire Wire Line
	8250 5350 8200 5350
Wire Wire Line
	7700 5650 8150 5650
Connection ~ 8150 5650
Wire Wire Line
	8150 5650 8150 5600
Wire Wire Line
	8200 5050 8200 5350
Connection ~ 8200 5350
Wire Wire Line
	8200 5350 8000 5350
Wire Wire Line
	5300 2900 5450 2900
Connection ~ 5300 2900
Wire Notes Line
	9000 4100 7000 4100
Wire Notes Line
	7000 4100 7000 2300
Wire Notes Line
	7000 2300 9000 2300
Wire Notes Line
	9000 2300 9000 4100
Wire Notes Line
	9000 3450 7000 3450
Text Label 7200 3050 0    50   ~ 0
OTA_SWITCH
Text Label 7200 3800 0    50   ~ 0
Button
Text Notes 7000 2250 0    50   ~ 0
Ota
Text Notes 7050 3550 0    50   ~ 0
Botón de pruebas
Text Label 4850 4400 0    50   ~ 0
OTA_SWITCH
Text Label 4950 4500 0    50   ~ 0
Button
Wire Wire Line
	8700 2600 8700 3050
Wire Wire Line
	8450 2600 8700 2600
Connection ~ 8700 3050
Wire Wire Line
	7850 2600 7200 2600
Wire Wire Line
	7200 3050 8100 3050
Wire Wire Line
	7200 3800 8200 3800
Text Label 7200 2600 0    50   ~ 0
OTA_LED
$Comp
L power:GND #PWR0101
U 1 1 5EBF1B7E
P 8550 1600
F 0 "#PWR0101" H 8550 1350 50  0001 C CNN
F 1 "GND" H 8700 1550 50  0000 C CNN
F 2 "" H 8550 1600 50  0001 C CNN
F 3 "" H 8550 1600 50  0001 C CNN
	1    8550 1600
	1    0    0    -1  
$EndComp
Wire Notes Line
	9000 2000 9000 650 
Text Notes 7050 600  0    50   ~ 0
Voltimetro pila
Wire Notes Line
	7000 2000 7000 650 
$Comp
L power:+6V #PWR0102
U 1 1 5EBF1B9D
P 8550 1000
F 0 "#PWR0102" H 8550 850 50  0001 C CNN
F 1 "+6V" H 8600 1050 50  0000 L CNN
F 2 "" H 8550 1000 50  0001 C CNN
F 3 "" H 8550 1000 50  0001 C CNN
	1    8550 1000
	1    0    0    -1  
$EndComp
Wire Notes Line
	7000 2000 9000 2000
Wire Notes Line
	7000 650  9000 650 
$Comp
L Device:R R7
U 1 1 5EC16E1A
P 8550 1450
F 0 "R7" H 8620 1496 50  0000 L CNN
F 1 "430k" H 8620 1405 50  0000 L CNN
F 2 "Resistor_THT:R_Axial_DIN0207_L6.3mm_D2.5mm_P5.08mm_Vertical" V 8480 1450 50  0001 C CNN
F 3 "~" H 8550 1450 50  0001 C CNN
	1    8550 1450
	1    0    0    -1  
$EndComp
$Comp
L Device:R R6
U 1 1 5EC1D8F9
P 8550 1150
F 0 "R6" H 8620 1196 50  0000 L CNN
F 1 "430k" H 8620 1105 50  0000 L CNN
F 2 "Resistor_THT:R_Axial_DIN0207_L6.3mm_D2.5mm_P5.08mm_Vertical" V 8480 1150 50  0001 C CNN
F 3 "~" H 8550 1150 50  0001 C CNN
	1    8550 1150
	1    0    0    -1  
$EndComp
Wire Wire Line
	8550 1300 7250 1300
Connection ~ 8550 1300
Text Label 7250 1300 0    50   ~ 0
v_vin_read
Wire Wire Line
	5100 3500 4800 3500
Text Label 4800 3500 0    50   ~ 0
OTA_LED
Text Label 2600 3700 0    50   ~ 0
v_vin_read
Wire Wire Line
	2600 3700 3050 3700
Wire Wire Line
	4800 4300 5300 4300
Text Label 5000 4300 0    50   ~ 0
GPIO0
$Comp
L Mechanical:MountingHole H1
U 1 1 5EC473A2
P 5900 7300
F 0 "H1" H 6000 7346 50  0000 L CNN
F 1 "MountingHole" H 6000 7255 50  0000 L CNN
F 2 "MountingHole:MountingHole_2.2mm_M2" H 5900 7300 50  0001 C CNN
F 3 "~" H 5900 7300 50  0001 C CNN
	1    5900 7300
	1    0    0    -1  
$EndComp
$Comp
L Mechanical:MountingHole H4
U 1 1 5EC50CF7
P 5900 7000
F 0 "H4" H 6000 7046 50  0000 L CNN
F 1 "MountingHole" H 6000 6955 50  0000 L CNN
F 2 "MountingHole:MountingHole_2.2mm_M2" H 5900 7000 50  0001 C CNN
F 3 "~" H 5900 7000 50  0001 C CNN
	1    5900 7000
	1    0    0    -1  
$EndComp
$Comp
L Mechanical:MountingHole H3
U 1 1 5EC52ABC
P 5900 6700
F 0 "H3" H 6000 6746 50  0000 L CNN
F 1 "MountingHole" H 6000 6655 50  0000 L CNN
F 2 "MountingHole:MountingHole_2.2mm_M2" H 5900 6700 50  0001 C CNN
F 3 "~" H 5900 6700 50  0001 C CNN
	1    5900 6700
	1    0    0    -1  
$EndComp
$Comp
L Mechanical:MountingHole H2
U 1 1 5EC5482C
P 5900 6400
F 0 "H2" H 6000 6446 50  0000 L CNN
F 1 "MountingHole" H 6000 6355 50  0000 L CNN
F 2 "MountingHole:MountingHole_2.2mm_M2" H 5900 6400 50  0001 C CNN
F 3 "~" H 5900 6400 50  0001 C CNN
	1    5900 6400
	1    0    0    -1  
$EndComp
Text Label 2750 4200 0    50   ~ 0
ls_feed
Wire Wire Line
	3050 4200 2750 4200
Text Label 2750 3500 0    50   ~ 0
ls_data
Wire Wire Line
	3050 3500 2750 3500
$Comp
L Device:C c3
U 1 1 5EE75D3A
P 1750 3000
F 0 "c3" H 1865 3046 50  0000 L CNN
F 1 "100nf" H 1865 2955 50  0000 L CNN
F 2 "Capacitor_THT:C_Radial_D5.0mm_H7.0mm_P2.00mm" H 1788 2850 50  0001 C CNN
F 3 "~" H 1750 3000 50  0001 C CNN
	1    1750 3000
	1    0    0    -1  
$EndComp
Wire Wire Line
	1750 2850 2100 2850
Connection ~ 2100 2850
Wire Wire Line
	1750 3150 2100 3150
Connection ~ 2100 3150
Text Notes 9500 5300 0    50   ~ 0
ERROR!
Text Notes 9350 5400 0    50   ~ 0
EN es HIGH
Text Notes 10150 3300 0    50   ~ 0
no tengo 10k en smd
$EndSCHEMATC
